\relax 
\providecommand\hyper@newdestlabel[2]{}
\AC@reset@newl@bel
\providecommand\HyperFirstAtBeginDocument{\AtBeginDocument}
\HyperFirstAtBeginDocument{\ifx\hyper@anchor\@undefined
\global\let\oldcontentsline\contentsline
\gdef\contentsline#1#2#3#4{\oldcontentsline{#1}{#2}{#3}}
\global\let\oldnewlabel\newlabel
\gdef\newlabel#1#2{\newlabelxx{#1}#2}
\gdef\newlabelxx#1#2#3#4#5#6{\oldnewlabel{#1}{{#2}{#3}}}
\AtEndDocument{\ifx\hyper@anchor\@undefined
\let\contentsline\oldcontentsline
\let\newlabel\oldnewlabel
\fi}
\fi}
\global\let\hyper@last\relax 
\gdef\HyperFirstAtBeginDocument#1{#1}
\providecommand\HyField@AuxAddToFields[1]{}
\providecommand\HyField@AuxAddToCoFields[2]{}
\AC@undonewlabel{acro:cad}
\newlabel{acro:cad}{{}{i}{\contentsname \@mkboth {\MakeUppercase \contentsname }{\MakeUppercase \contentsname }}{section*.2}{}}
\acronymused{cad}
\AC@undonewlabel{acro:sbc}
\newlabel{acro:sbc}{{}{i}{\contentsname \@mkboth {\MakeUppercase \contentsname }{\MakeUppercase \contentsname }}{section*.3}{}}
\acronymused{sbc}
\@writefile{toc}{\contentsline {section}{\hbox to\@tempdima {\hfil }List of Figures}{ii}{section*.4}}
\@writefile{toc}{\contentsline {section}{\numberline {1}Camera Rig, Prototype}{1}{section.1}}
\newlabel{sec:CameraRig}{{1}{1}{Camera Rig, Prototype}{section.1}{}}
\acronymused{cad}
\@writefile{toc}{\contentsline {subsection}{\numberline {1.1}\ac {cad}, File}{1}{subsection.1.1}}
\newlabel{sec:cadRig}{{1.1}{1}{\ac {cad}, File}{subsection.1.1}{}}
\@writefile{lof}{\contentsline {figure}{\numberline {1}{\ignorespaces Draft version of a camera rig}}{1}{figure.caption.5}}
\providecommand*\caption@xref[2]{\@setref\relax\@undefined{#1}}
\newlabel{fig:draft2}{{1}{1}{Draft version of a camera rig}{figure.caption.5}{}}
\@writefile{lof}{\contentsline {figure}{\numberline {2}{\ignorespaces Draft version of a camera rig side view}}{2}{figure.caption.6}}
\newlabel{fig:draft}{{2}{2}{Draft version of a camera rig side view}{figure.caption.6}{}}
\acronymused{sbc}
\citation{ref:Raspberry}
\citation{ref:usbpower}
\@writefile{toc}{\contentsline {section}{\numberline {2}Battery for the camera rig}{3}{section.2}}
\@writefile{toc}{\contentsline {subsection}{\numberline {2.1}Power supply for the Raspberry Pi}{3}{subsection.2.1}}
\@writefile{toc}{\contentsline {subsection}{\numberline {2.2}Battery}{3}{subsection.2.2}}
\newlabel{sec:Battery}{{2.2}{3}{Battery}{subsection.2.2}{}}
\@writefile{toc}{\contentsline {section}{\numberline {3}Optimize calculation power}{4}{section.3}}
\newlabel{sec:optimize}{{3}{4}{Optimize calculation power}{section.3}{}}
\acronymused{sbc}
\@writefile{toc}{\contentsline {subsection}{\numberline {3.1}Enhance computing power\\ through a cluster of \acf {sbc} ?}{4}{subsection.3.1}}
\newlabel{sec:}{{3.1}{4}{Enhance computing power\\ through a cluster of \acf {sbc} ?}{subsection.3.1}{}}
\newlabel{ProCons}{{\caption@xref {ProCons}{ on input line 157}}{4}{Enhance computing power\\ through a cluster of \acf {sbc} ?}{table.caption.7}{}}
\@writefile{lot}{\contentsline {table}{\numberline {1}{\ignorespaces Advantages and Disadvantages\relax }}{4}{table.caption.7}}
\acronymused{sbc}
\acronymused{sbc}
\@writefile{toc}{\contentsline {subsection}{\numberline {3.2}Question to ask:}{4}{subsection.3.2}}
\acronymused{sbc}
\@writefile{toc}{\contentsline {subsection}{\numberline {3.3}Cluster?}{4}{subsection.3.3}}
\acronymused{sbc}
\acronymused{sbc}
\AC@undonewlabel{acro:ntp}
\newlabel{acro:ntp}{{3.3}{4}{Cluster?}{section*.8}{}}
\acronymused{ntp}
\acronymused{ntp}
\@writefile{toc}{\contentsline {subsection}{\numberline {3.4}Alternative to a cluster}{5}{subsection.3.4}}
\@writefile{toc}{\contentsline {section}{\numberline {4}LED Bar}{6}{section.4}}
\newlabel{sec:Leds}{{4}{6}{LED Bar}{section.4}{}}
\@writefile{toc}{\contentsline {subsection}{\numberline {4.1}How to calculate the power consumption of all LEDs in total, if you create your own LED bar?}{6}{subsection.4.1}}
\@writefile{lof}{\contentsline {figure}{\numberline {3}{\ignorespaces Parallel Circuit}}{6}{figure.caption.9}}
\newlabel{fig:parallel}{{3}{6}{Parallel Circuit}{figure.caption.9}{}}
\@writefile{lof}{\contentsline {figure}{\numberline {4}{\ignorespaces Series Circuit}}{6}{figure.caption.10}}
\newlabel{fig:series}{{4}{6}{Series Circuit}{figure.caption.10}{}}
\@writefile{toc}{\contentsline {subsection}{\numberline {4.2}How to dim the LEDs}{8}{subsection.4.2}}
\newlabel{subsec:dims}{{4.2}{8}{How to dim the LEDs}{subsection.4.2}{}}
\@writefile{toc}{\contentsline {subsubsection}{\numberline {4.2.1}Analog:}{8}{subsubsection.4.2.1}}
\@writefile{toc}{\contentsline {subsubsection}{\numberline {4.2.2}Digital:}{8}{subsubsection.4.2.2}}
\AC@undonewlabel{acro:pwm}
\newlabel{acro:pwm}{{4.2.2}{8}{Digital:}{section*.11}{}}
\acronymused{pwm}
\acronymused{pwm}
\@writefile{toc}{\contentsline {subsection}{\numberline {4.3}Evualation }{9}{subsection.4.3}}
\newlabel{subsec:efficiencyimprove}{{4.3}{9}{Evualation}{subsection.4.3}{}}
\newlabel{ProConsLEDBar}{{\caption@xref {ProConsLEDBar}{ on input line 280}}{9}{Evualation}{table.caption.12}{}}
\@writefile{lot}{\contentsline {table}{\numberline {2}{\ignorespaces Advantages and Disadvantages\relax }}{9}{table.caption.12}}
\@writefile{toc}{\contentsline {subsection}{\numberline {4.4}LED Bar suggestion}{10}{subsection.4.4}}
\@writefile{lof}{\contentsline {figure}{\numberline {5}{\ignorespaces LED Bar}}{10}{figure.caption.13}}
\newlabel{fig:ledbar}{{5}{10}{LED Bar}{figure.caption.13}{}}
\acronymused{sbc}
\@writefile{toc}{\contentsline {section}{\numberline {5}Economic Evaluation}{10}{section.5}}
\citation{ref:ntp}
\citation{ref:SBC}
\citation{ref:arm}
\citation{ref:pwm}
\bibstyle{IEEEtran}
\bibdata{/Users/noahkeller/OneDrive/Studium/Dokumente/LaTex/Dokumente/NTNU_KammeraRig/QuellenVerzeichnis.bib}
\bibcite{ref:Raspberry}{1}
\bibcite{ref:usbpower}{2}
\bibcite{ref:ntp}{3}
\bibcite{ref:SBC}{4}
\bibcite{ref:arm}{5}
\bibcite{ref:pwm}{6}
\newlabel{ref:glossdefinition}{{5}{11}{Glossar of definition}{section*.14}{}}
\acronymused{ntp}
\acronymused{sbc}
\acronymused{sbc}
\newlabel{def:sbc}{{5}{11}{Glossar of definition}{section*.14}{}}
\AC@undonewlabel{acro:arm}
\newlabel{acro:arm}{{5}{11}{Glossar of definition}{section*.15}{}}
\acronymused{arm}
\acronymused{arm}
\acronymused{arm}
\acronymused{pwm}
\@writefile{toc}{\contentsline {section}{\hbox to\@tempdima {\hfil }Glossar of definition}{11}{section*.14}}
\newlabel{ref:gloss}{{5}{11}{Glossar of acronyms}{section*.16}{}}
\newacro{ntp}[\AC@hyperlink{ntp}{NTP}]{Network Time Protocol}
\newacro{sbc}[\AC@hyperlink{sbc}{SBC}]{Single-board computer }
\newacro{arm}[\AC@hyperlink{arm}{ARM}]{ Advanced RISC Machine}
\newacro{pwm}[\AC@hyperlink{pwm}{PWM}]{ Pulse Width Modulation}
\newacro{cad}[\AC@hyperlink{cad}{CAD}]{ Computer Aided Design}
\@writefile{toc}{\contentsline {section}{\hbox to\@tempdima {\hfil }Glossar of acronyms}{11}{section*.16}}
\@writefile{toc}{\contentsline {section}{\hbox to\@tempdima {\hfil }References}{11}{section*.17}}
